ISA*00*          *00*          *01*ALPI           *01*ICON*20170428*20170428*U*00401*000000001*0*P*>
GS*SH*001*ICON*20170428*16104600 * 000000001*X*004010
ST*856*139987900
BSN*05*1399879*20170428*1610*0001
HL*1**S
TD1*CNT*1
TD5**4*UA*A**ABPG*KL*FLR*******IT
TD5*******PA*4701*******US
TD5*******DE*4701*******
REF*ZC*UNITED AIRLINES
REF*MB*01605457281
REF*ZZ*Y
REF*XC*
DTM*370*20170326
DTM*371*20170326
N1*DS**92*968
V1**UNITED AIRLINES**UAT4060*
HL*2*1*E
TD3**0160*5457281******AIR*AIR
REF*4B*CFS
REF*4C*CFS
REF*ZZ*Y
FOB*CC********
N1*DS**92*968
SAC*C*D240***0,000
V1**UNITED AIRLINES**UAT4060
HL*1*2*O
PRF*#043_9CA70******
TD1*CTN*5***LEATHER SHOESG*91*KG*700*MC
TSD*1*
REF*BN*0893102
REF*VN*
REF*19*US
REF*06*33
REF*IA*26
REF*BL*
REF*MB*
REF*BM**
REF*U0*6522975
REF*CB*N
REF*SU*F
DTM*375*20170324
SAC*C*D240***0
HL*2*1*I
LIN*1*VA*1528 05060010506*PS*1*A7**VE**IZ*
SN1**2,00*EA*****
HL*3*1*I
LIN*2*VA*1528 05060010506*PS*1*A7**VE**IZ*
SN1**2,00*EA*****
HL*4*1*I
LIN*3*VA*1528 05060010506*PS*1*A7**VE**IZ*
SN1**2,00*EA*****
HL*5*1*I
LIN*4*VA*1528 05060010506*PS*1*A7**VE**IZ*
SN1**2,00*EA*****
HL*6*1*I
LIN*5*VA*1528 05060010506*PS*1*A7**VE**IZ*
SN1**2,00*EA*****
HL*7*1*I
LIN*6*VA*1528 05060010506*PS*1*A7**VE**IZ*
SN1**2,00*EA*****
HL*8*1*I
LIN*7*VA*1528 05060010506*PS*1*A7**VE**IZ*
SN1**2,00*EA*****
HL*9*1*I
LIN*8*VA*1528 05060010506*PS*1*A7**VE**IZ*
SN1**2,00*EA*****
HL*10*1*I
LIN*9*VA*1528 05060010506*PS*1*A7**VE**IZ*
SN1**2,00*EA*****
HL*11*1*I
LIN*10*VA*1528 05060010506*PS*1*A7**VE**IZ*
SN1**2,00*EA*****
HL*12*1*I
LIN*11*VA*1528 05060010506*PS*1*A7**VE**IZ*
SN1**2,00*EA*****
HL*13*1*I
LIN*12*VA*1528 05060010506*PS*1*A7**VE**IZ*
SN1**2,00*EA*****
HL*14*1*I
LIN*13*VA*1528 05060010506*PS*1*A7**VE**IZ*
SN1**2,00*EA*****
HL*15*1*I
LIN*14*VA*1528 05060010506*PS*1*A7**VE**IZ*
SN1**2,00*EA*****
HL*16*1*I
LIN*15*VA*1528 05060010506*PS*1*A7**VE**IZ*
SN1**2,00*EA*****
HL*17*1*I
LIN*16*VA*1528 05060010506*PS*1*A7**VE**IZ*
SN1**2,00*EA*****
HL*18*1*I
LIN*17*VA*1528 05060010506*PS*1*A7**VE**IZ*
SN1**2,00*EA*****
HL*19*1*I
LIN*18*VA*1528 05060010506*PS*1*A7**VE**IZ*
SN1**2,00*EA*****
HL*20*1*I
LIN*19*VA*1528 05060010506*PS*1*A7**VE**IZ*
SN1**2,00*EA*****
HL*21*1*I
LIN*20*VA*1528 05060010506*PS*1*A7**VE**IZ*
SN1**2,00*EA*****
HL*22*1*I
LIN*21*VA*1528 05060010506*PS*1*A7**VE**IZ*
SN1**2,00*EA*****
HL*23*1*I
LIN*22*VA*1528 05060010506*PS*1*A7**VE**IZ*
SN1**2,00*EA*****
HL*24*1*I
LIN*23*VA*1528 05060010506*PS*1*A7**VE**IZ*
SN1**2,00*EA*****
HL*25*1*I
LIN*24*VA*1528 05060010506*PS*1*A7**VE**IZ*
SN1**2,00*EA*****
HL*26*1*I
LIN*25*VA*1528 05060010506*PS*1*A7**VE**IZ*
SN1**2,00*EA*****
HL*27*1*I
LIN*26*VA*1528 05060010506*PS*1*A7**VE**IZ*
SN1**2,00*EA*****
HL*28*1*I
LIN*27*VA*1528 05060010506*PS*1*A7**VE**IZ*
SN1**2,00*EA*****
HL*29*1*I
LIN*28*VA*1528 05060010506*PS*1*A7**VE**IZ*
SN1**2,00*EA*****
HL*30*1*I
LIN*29*VA*1528 05060010506*PS*1*A7**VE**IZ*
SN1**2,00*EA*****
HL*31*1*I
LIN*30*VA*1528 05060010506*PS*1*A7**VE**IZ*
SN1**2,00*EA*****
HL*32*1*I
LIN*31*VA*1528 05060010506*PS*1*A7**VE**IZ*
SN1**2,00*EA*****
HL*33*1*I
LIN*32*VA*1528 05060010506*PS*1*A7**VE**IZ*
SN1**2,00*EA*****
HL*34*1*I
LIN*33*VA*1528 05060010506*PS*1*A7**VE**IZ*
SN1**2,00*EA*****
HL*35*2*O
PRF*#050_9CA70******
TD1*CTN*9***LEATHER SHOESG*175*KG*1260*MC
TSD*1*
REF*BN*0893103
REF*VN*
REF*19*US
REF*06*78
REF*IA*26
REF*BL*
REF*MB*
REF*BM**
REF*U0*6523007
REF*CB*N
REF*SU*F
DTM*375*20170324
SAC*C*D240***0
HL*36*35*I
LIN*1*VA*G30WS590001A96*PS*1*A7**VE**IZ*
SN1**2,00*EA*****
HL*37*35*I
LIN*2*VA*G30WS590001A96*PS*1*A7**VE**IZ*
SN1**2,00*EA*****
HL*38*35*I
LIN*3*VA*G30WS590001A96*PS*1*A7**VE**IZ*
SN1**2,00*EA*****
HL*39*35*I
LIN*4*VA*G30WS590001A96*PS*1*A7**VE**IZ*
SN1**2,00*EA*****
HL*40*35*I
LIN*5*VA*G30WS590001A96*PS*1*A7**VE**IZ*
SN1**2,00*EA*****
HL*41*35*I
LIN*6*VA*G30WS590001A96*PS*1*A7**VE**IZ*
SN1**2,00*EA*****
HL*42*35*I
LIN*7*VA*G30WS590001A96*PS*1*A7**VE**IZ*
SN1**2,00*EA*****
HL*43*35*I
LIN*8*VA*G30WS590001A96*PS*1*A7**VE**IZ*
SN1**2,00*EA*****
HL*44*35*I
LIN*9*VA*G30WS590001A96*PS*1*A7**VE**IZ*
SN1**2,00*EA*****
HL*45*35*I
LIN*10*VA*G30WS590001A96*PS*1*A7**VE**IZ*
SN1**2,00*EA*****
HL*46*35*I
LIN*11*VA*G30WS590001A96*PS*1*A7**VE**IZ*
SN1**2,00*EA*****
HL*47*35*I
LIN*12*VA*G30WS590001A96*PS*1*A7**VE**IZ*
SN1**2,00*EA*****
HL*48*35*I
LIN*13*VA*G30WS590001A96*PS*1*A7**VE**IZ*
SN1**2,00*EA*****
HL*49*35*I
LIN*14*VA*G30WS590001A96*PS*1*A7**VE**IZ*
SN1**2,00*EA*****
HL*50*35*I
LIN*15*VA*G30WS590001A96*PS*1*A7**VE**IZ*
SN1**2,00*EA*****
HL*51*35*I
LIN*16*VA*G30WS590001A96*PS*1*A7**VE**IZ*
SN1**2,00*EA*****
HL*52*35*I
LIN*17*VA*G30WS590001A96*PS*1*A7**VE**IZ*
SN1**2,00*EA*****
HL*53*35*I
LIN*18*VA*G30WS590001A96*PS*1*A7**VE**IZ*
SN1**2,00*EA*****
HL*54*35*I
LIN*19*VA*G30WS590001A96*PS*1*A7**VE**IZ*
SN1**2,00*EA*****
HL*55*35*I
LIN*20*VA*G30WS590001A96*PS*1*A7**VE**IZ*
SN1**2,00*EA*****
HL*56*35*I
LIN*21*VA*G30WS590001A96*PS*1*A7**VE**IZ*
SN1**2,00*EA*****
HL*57*35*I
LIN*22*VA*G30WS590001A96*PS*1*A7**VE**IZ*
SN1**2,00*EA*****
HL*58*35*I
LIN*23*VA*G30WS590001A96*PS*1*A7**VE**IZ*
SN1**2,00*EA*****
HL*59*35*I
LIN*24*VA*G30WS590001A96*PS*1*A7**VE**IZ*
SN1**2,00*EA*****
HL*60*35*I
LIN*25*VA*G30WS590001A96*PS*1*A7**VE**IZ*
SN1**2,00*EA*****
HL*61*35*I
LIN*26*VA*G30WS590001A96*PS*1*A7**VE**IZ*
SN1**2,00*EA*****
HL*62*35*I
LIN*27*VA*G30WS590001A96*PS*1*A7**VE**IZ*
SN1**2,00*EA*****
HL*63*35*I
LIN*28*VA*G30WS590001A96*PS*1*A7**VE**IZ*
SN1**2,00*EA*****
HL*64*35*I
LIN*29*VA*G30WS590001A96*PS*1*A7**VE**IZ*
SN1**2,00*EA*****
HL*65*35*I
LIN*30*VA*G30WS590001A96*PS*1*A7**VE**IZ*
SN1**2,00*EA*****
HL*66*35*I
LIN*31*VA*G30WS590001A96*PS*1*A7**VE**IZ*
SN1**2,00*EA*****
HL*67*35*I
LIN*32*VA*G30WS590001A96*PS*1*A7**VE**IZ*
SN1**2,00*EA*****
HL*68*35*I
LIN*33*VA*G30WS590001A96*PS*1*A7**VE**IZ*
SN1**2,00*EA*****
HL*69*35*I
LIN*34*VA*G30WS590001A96*PS*1*A7**VE**IZ*
SN1**2,00*EA*****
HL*70*35*I
LIN*35*VA*G30WS590001A96*PS*1*A7**VE**IZ*
SN1**2,00*EA*****
HL*71*35*I
LIN*36*VA*G30WS590001A96*PS*1*A7**VE**IZ*
SN1**2,00*EA*****
HL*72*35*I
LIN*37*VA*G30WS590001A96*PS*1*A7**VE**IZ*
SN1**2,00*EA*****
HL*73*35*I
LIN*38*VA*G30WS590001A96*PS*1*A7**VE**IZ*
SN1**2,00*EA*****
HL*74*35*I
LIN*39*VA*G30WS590001A96*PS*1*A7**VE**IZ*
SN1**2,00*EA*****
HL*75*35*I
LIN*40*VA*G30WS590001A96*PS*1*A7**VE**IZ*
SN1**2,00*EA*****
HL*76*35*I
LIN*41*VA*G30WS590001A96*PS*1*A7**VE**IZ*
SN1**2,00*EA*****
HL*77*35*I
LIN*42*VA*G30WS590001A96*PS*1*A7**VE**IZ*
SN1**2,00*EA*****
HL*78*35*I
LIN*43*VA*G30WS590001A96*PS*1*A7**VE**IZ*
SN1**2,00*EA*****
HL*79*35*I
LIN*44*VA*G30WS590001A96*PS*1*A7**VE**IZ*
SN1**2,00*EA*****
HL*80*35*I
LIN*45*VA*G30WS590001A96*PS*1*A7**VE**IZ*
SN1**2,00*EA*****
HL*81*35*I
LIN*46*VA*G30WS590001A96*PS*1*A7**VE**IZ*
SN1**2,00*EA*****
HL*82*35*I
LIN*47*VA*G30WS590001A96*PS*1*A7**VE**IZ*
SN1**2,00*EA*****
HL*83*35*I
LIN*48*VA*G30WS590001A96*PS*1*A7**VE**IZ*
SN1**2,00*EA*****
HL*84*35*I
LIN*49*VA*G30WS590001A96*PS*1*A7**VE**IZ*
SN1**2,00*EA*****
HL*85*35*I
LIN*50*VA*G30WS590001A96*PS*1*A7**VE**IZ*
SN1**2,00*EA*****
HL*86*35*I
LIN*51*VA*G30WS590001A96*PS*1*A7**VE**IZ*
SN1**2,00*EA*****
HL*87*35*I
LIN*52*VA*G30WS590001A96*PS*1*A7**VE**IZ*
SN1**2,00*EA*****
HL*88*35*I
LIN*53*VA*G30WS590001A96*PS*1*A7**VE**IZ*
SN1**2,00*EA*****
HL*89*35*I
LIN*54*VA*G30WS590001A96*PS*1*A7**VE**IZ*
SN1**2,00*EA*****
HL*90*35*I
LIN*55*VA*G30WS590001A96*PS*1*A7**VE**IZ*
SN1**2,00*EA*****
HL*91*35*I
LIN*56*VA*G30WS590001A96*PS*1*A7**VE**IZ*
SN1**2,00*EA*****
HL*92*35*I
LIN*57*VA*G30WS590001A96*PS*1*A7**VE**IZ*
SN1**2,00*EA*****
HL*93*35*I
LIN*58*VA*G30WS590001A96*PS*1*A7**VE**IZ*
SN1**2,00*EA*****
HL*94*35*I
LIN*59*VA*G30WS590001A96*PS*1*A7**VE**IZ*
SN1**2,00*EA*****
HL*95*35*I
LIN*60*VA*G30WS590001A96*PS*1*A7**VE**IZ*
SN1**2,00*EA*****
HL*96*35*I
LIN*61*VA*G30WS590001A96*PS*1*A7**VE**IZ*
SN1**2,00*EA*****
HL*97*35*I
LIN*62*VA*G30WS590001A96*PS*1*A7**VE**IZ*
SN1**2,00*EA*****
HL*98*35*I
LIN*63*VA*G30WS590001A96*PS*1*A7**VE**IZ*
SN1**2,00*EA*****
HL*99*35*I
LIN*64*VA*G30WS590001A96*PS*1*A7**VE**IZ*
SN1**2,00*EA*****
HL*100*35*I
LIN*65*VA*G30WS590001A96*PS*1*A7**VE**IZ*
SN1**2,00*EA*****
HL*101*35*I
LIN*66*VA*G30WS590001A96*PS*1*A7**VE**IZ*
SN1**2,00*EA*****
HL*102*35*I
LIN*67*VA*G30WS590001A96*PS*1*A7**VE**IZ*
SN1**2,00*EA*****
HL*103*35*I
LIN*68*VA*G30WS590001A96*PS*1*A7**VE**IZ*
SN1**2,00*EA*****
HL*104*35*I
LIN*69*VA*G30WS590001A96*PS*1*A7**VE**IZ*
SN1**2,00*EA*****
HL*105*35*I
LIN*70*VA*G30WS590001A96*PS*1*A7**VE**IZ*
SN1**2,00*EA*****
HL*106*35*I
LIN*71*VA*G30WS590001A96*PS*1*A7**VE**IZ*
SN1**2,00*EA*****
HL*107*35*I
LIN*72*VA*G30WS590001A96*PS*1*A7**VE**IZ*
SN1**2,00*EA*****
HL*108*35*I
LIN*73*VA*G30WS590001A96*PS*1*A7**VE**IZ*
SN1**2,00*EA*****
HL*109*35*I
LIN*74*VA*G30WS590001A96*PS*1*A7**VE**IZ*
SN1**2,00*EA*****
HL*110*35*I
LIN*75*VA*G30WS590001A96*PS*1*A7**VE**IZ*
SN1**2,00*EA*****
HL*111*35*I
LIN*76*VA*G30WS590001A96*PS*1*A7**VE**IZ*
SN1**2,00*EA*****
HL*112*35*I
LIN*77*VA*G30WS590001A96*PS*1*A7**VE**IZ*
SN1**2,00*EA*****
HL*113*35*I
LIN*78*VA*G30WS590001A96*PS*1*A7**VE**IZ*
SN1**2,00*EA*****
CTT*111   
SE*0000000393*001399879
GE*000001*000000001
IEA*00001*000000001